{
    "development": {
        "username": "xtrivia-app",
        "password": "Xtr1v14-db",
        "database": "xtrivia",
        "host": "10.10.10.75",
        "dialect": "mysql",
        "port": "3306"
    },
    "test": {
        "username": "root",
        "password": "RootXtrvia#21",
        "database": "xtrivia",
        "host": "127.0.0.1",
        "dialect": "mariadb"
    },
    "production": {
        "username": "root",
        "password": "RootXtrvia#21",
        "database": "xtrivia",
        "host": "127.0.0.1",
        "dialect": "mariadb"
    }
}